{
  "biome": ["mountains", "plains", "see", "forests"],
  "ressources": {
      "mountains": {
        "basics" :{
          "food":0,
          "wood":0,
          "stone":4
        }
      },
      "see": {
        "basics" :{
          "food":4,
          "wood":0,
          "stone":0
        }
      },
      "plains": {
        "basics" :{
          "food":3,
          "wood":1,
          "stone":0
        }
      },
      "forests": {
        "basics" :{
          "food":1,
          "wood":3,
          "stone":0
        }
      }
    }
  }
